# dialogs

var options_dialog = gui.Dialog.new("/sim/gui/dialogs/ec130/options/dialog", "Aircraft/ec130/Dialogs/ec130-options-dialog.xml");
var config_dialog = gui.Dialog.new("/sim/gui/dialogs/ec130/config/dialog", "Aircraft/ec130/Dialogs/ec130-config-dialog.xml");
var help_config_dialog = gui.Dialog.new("/sim/gui/dialogs/ec130/help_config/dialog", "Aircraft/ec130/Dialogs/ec130-help-config-dialog.xml");

