#----------------------------------------------------------------------------
# Electrical System: Misc
# EMMISC
#----------------------------------------------------------------------------

# Constants

var oil_pressure_l = props.globals.getNode("engines/engine[0]/oil-pressure-psi", 1);
var oil_pressure_r = props.globals.getNode("engines/engine[1]/oil-pressure-psi", 1);
var ca_oil_press_light  = props.globals.getNode("sim/model/f-14b/lights/ca-oil-press", 1);

var bingo      = props.globals.getNode("sim/model/f-14b/controls/fuel/bingo", 1);
var ca_bingo_light  = props.globals.getNode("sim/model/f-14b/lights/ca-bingo", 1);

var ca_canopy_light = props.globals.getNode("sim/model/f-14b/lights/ca-lad-canopy", 1);
var canopy = props.globals.getNode("canopy/position-norm", 1);
canopy.setValue(0);

var ca_ramp_light = props.globals.getNode("sim/model/f-14b/lights/ca-ramps", 1);

var masterCaution_light = props.globals.getNode("sim/model/f-14b/instrumentation/warnings/master-caution", 1);
var masterCaution_light_set = props.globals.getNode("sim/model/f-14b/controls/master-caution-set", 1);
masterCaution_light_set.setBoolValue(0);

var jettisonLeft = props.globals.getNode("controls/armament/station[2]/jettison-all", 1);
var jettisonRight = props.globals.getNode("controls/armament/station[7]/jettison-all", 1);

var ca_l_gen_light  = props.globals.getNode("sim/model/f-14b/lights/ca-l-gen", 1);
var ca_r_gen_light  = props.globals.getNode("sim/model/f-14b/lights/ca-r-gen", 1);

var ca_l_fuel_press_light  = props.globals.getNode("sim/model/f-14b/lights/ca-l-fuel-press", 1);
var ca_r_fuel_press_light  = props.globals.getNode("sim/model/f-14b/lights/ca-r-fuel-press", 1);

var ca_l_fuel_low  = props.globals.getNode("sim/model/f-14b/lights/ca-l-fuel-low", 1);
var ca_r_fuel_low  = props.globals.getNode("sim/model/f-14b/lights/ca-r-fuel-low", 1);

var ca_hyd_press_light  = props.globals.getNode("sim/model/f-14b/lights/ca-hyd-press", 1);

var l_eng_starter = props.globals.getNode("controls/engines/engine[0]/starter",1);
var r_eng_starter = props.globals.getNode("controls/engines/engine[1]/starter",1);

var l_eng_running = props.globals.getNode("engines/engine[0]/running",1);
var r_eng_running = props.globals.getNode("engines/engine[1]/running",1);
var ca_start_valve  = props.globals.getNode("sim/model/f-14b/lights/ca-start-valve", 1);
setprop("sim/model/f-14b/controls/hud/on-off",1);
setprop("sim/model/f-14b/controls/electrics/emerg-gen-switch",1);
setprop("sim/model/f-14b/controls/electrics/l-gen-switch",1);
setprop("sim/model/f-14b/controls/electrics/r-gen-switch",1);

var dlg_ground_services  = gui.Dialog.new("dialog[2]","Aircraft/f-14b/Dialogs/ground-services.xml");

if(!usingJSBSim)
{
    #
    #
    # Set the electrics for yasim (basic electrical model)
    setprop("/fdm/jsbsim/systems/electrics/ac-essential-bus1",75);
    setprop("/fdm/jsbsim/systems/electrics/ac-essential-bus2",75); 
    setprop("/fdm/jsbsim/systems/electrics/ac-left-main-bus",75);
    setprop("/fdm/jsbsim/systems/electrics/ac-right-main-bus",75);
    setprop("/fdm/jsbsim/systems/electrics/dc-essential-bus1",28);
    setprop("/fdm/jsbsim/systems/electrics/dc-essential-bus2",28);
    setprop("/fdm/jsbsim/systems/electrics/dc-main-bus",28);
    setprop("/fdm/jsbsim/systems/electrics/egenerator-kva",0);
    setprop("/fdm/jsbsim/systems/electrics/emerg-generator-status",0);
    setprop("/fdm/jsbsim/systems/electrics/lgenerator-kva",75);
    setprop("/fdm/jsbsim/systems/electrics/rgenerator-kva",75);
    setprop("/fdm/jsbsim/systems/electrics/transrect-online",2);
    setprop("fdm/jsbsim/systems/hydraulics/combined-system-psi",2398);
    setprop("fdm/jsbsim/systems/hydraulics/flight-system-psi",2396);
    setprop("engines/engine[0]/oil-pressure-psi", 28);
    setprop("engines/engine[1]/oil-pressure-psi", 28);
}

var runEMMISC = func {

# disable if we are in replay mode
#	if ( getprop("sim/replay/time") > 0 ) { return }

    var masterCaution =  masterCaution_light_set.getValue();
    var master_caution_active  = 0;
    var engine_crank_switch_pos = getprop("sim/model/f-14b/controls/engine/engine-crank");

    if ( ((engine_crank_switch_pos == 1 or l_eng_starter.getBoolValue()) and l_eng_running.getBoolValue()) 
        or ((engine_crank_switch_pos == 2 or r_eng_starter.getBoolValue()) and r_eng_running.getBoolValue()))
    {
        if (!ca_start_valve.getBoolValue())
        {
		    ca_start_valve.setBoolValue(1);
            masterCaution = 1;
        }
        master_caution_active = 1;
    }        
    else
    {
        if (ca_start_valve.getBoolValue())
	    {
		    ca_start_valve.setBoolValue(0);
        }
    }

    if(getprop("/fdm/jsbsim/systems/electrics/ac-left-main-bus") < 5)
    {
        setprop("sim/hud/visibility[1]",0);
    }
    else
    {
        setprop("sim/hud/visibility[1]",getprop("sim/model/f-14b/controls/hud/on-off"));
    }

#
# RAMPS light on when either of the following 2 conditions met:
# 
# 1. Gear Handle Down or Inlet Ramps Switch in stow 
#    AND 
#    Ramp#2 not in stow locks OR Ramp#3 not in stow locks
#
# 2. Hydraulic shutoff value deenergized (Mach <0.35 and/or AICS failuer)
#    AND
#    Ramp#1 not in stow locks OR Ramp#3 not in stow locks
#
## ca_ramp_light on 

# INLET light:
# Indicates AICS programmer/system failure.
# AICS Failure:
# 1. < M 0.5 ramps should be restrained by actuator stow locks
# 2. > M 0.5 ramp movement is restrained by trapped hydraulic pressure and mechanical locks, depending
#   on mach when inlet light illuminates
# 3.> M 0.9 Ramp movement is minimized by actuator spool valves and the aerodynamic load profile
#  in this Mach range and a RAMP light should illuminate

    if(getprop("fdm/jsbsim/systems/hydraulics/combined-system-psi") < 2100 or 
       getprop("fdm/jsbsim/systems/hydraulics/flight-system-psi") < 2100)
    {
		if (!ca_hyd_press_light.getBoolValue())
		{
		    ca_hyd_press_light.setBoolValue(1);
            masterCaution = 1;
		}
        master_caution_active = 1;
    }
    else
    {
        ca_hyd_press_light.setBoolValue(0);
    }

	if (oil_pressure_l.getValue() < 23 or oil_pressure_r.getValue() < 23 )
    {
		if (!ca_oil_press_light.getBoolValue())
		{
		    ca_oil_press_light.setBoolValue(1);
            masterCaution = 1;
		}
        master_caution_active = 1;
	}
	else
	{
		if (ca_oil_press_light.getBoolValue())
		{
		    ca_oil_press_light.setBoolValue(0);
		}
    }

    if(oil_pressure_l.getValue() < 23)
    {
        if (!ca_l_fuel_press_light.getBoolValue())
        {
            ca_l_fuel_press_light.setBoolValue(1);
            masterCaution = 1;
        }
        master_caution_active = 1;
    }
    else
    {
        if(ca_l_fuel_press_light.getBoolValue())
        {
            ca_l_fuel_press_light.setBoolValue(0);
        }
    }
    if(oil_pressure_r.getValue() < 23)
    {
        if (!ca_r_fuel_press_light.getBoolValue())
        {
            ca_r_fuel_press_light.setBoolValue(1);
            masterCaution = 1;
        }
        master_caution_active = 1;
    }
    else
    {
        if(ca_r_fuel_press_light.getBoolValue())
        {
            ca_r_fuel_press_light.setBoolValue(0);
        }
    }

    if(getprop("/fdm/jsbsim/systems/electrics/lgenerator-kva") < 50)
    {
        if (!ca_l_gen_light.getBoolValue())
        {
            ca_l_gen_light.setBoolValue(1);
            masterCaution = 1;
        }
        master_caution_active = 1;
    }
    else
    {
        if (ca_l_gen_light.getBoolValue())
        {
            ca_l_gen_light.setBoolValue(0);
        }
    }

    if(getprop("/fdm/jsbsim/systems/electrics/rgenerator-kva") < 50)
    {
        if (!ca_r_gen_light.getBoolValue())
        {
            ca_r_gen_light.setBoolValue(1);
            masterCaution = 1;
        }
        master_caution_active = 1;
    }
    else
    {
        if (ca_r_gen_light.getBoolValue())
        {
            ca_r_gen_light.setBoolValue(0);
        }
    }

	if (total_lbs < bingo.getValue())
    {
		if (!ca_bingo_light.getBoolValue())
		{
		    ca_bingo_light.setBoolValue(1);
            masterCaution = 1;
		}
        master_caution_active = 1;
	}
	else
	{
		if (ca_bingo_light.getBoolValue())
		{
		    ca_bingo_light.setBoolValue(0);
		}
	}

	if (total_fuel_l < 1000)
    {
		if (!ca_l_fuel_low.getBoolValue())
		{
    	    ca_l_fuel_low.setBoolValue(1);
            masterCaution = 1;
        }
        master_caution_active = 1;
	}
	else
	{
		if (ca_l_fuel_low.getBoolValue())
		{
		    ca_l_fuel_low.setBoolValue(0);
		}
	}

	if (total_fuel_r < 1000)
    {
		if (!ca_r_fuel_low.getBoolValue())
		{
    	    ca_r_fuel_low.setBoolValue(1);
            masterCaution = 1;
        }
        master_caution_active = 1;
	}
	else
	{
		if (ca_r_fuel_low.getBoolValue())
		{
		    ca_r_fuel_low.setBoolValue(0);
		}
	}

	if (getprop("/fdm/jsbsim/systems/electrics/transrect-online") < 2)
    {
        if (!getprop("sim/model/f-14b/lights/ca-trans-rect"))
        {
            setprop("sim/model/f-14b/lights/ca-trans-rect",1);
            masterCaution = 1;
        }
        master_caution_active = 1;
    }
    else
    {
        if (getprop("sim/model/f-14b/lights/ca-trans-rect"))
        {
            setprop("sim/model/f-14b/lights/ca-trans-rect",0);
        }
    }

	if (getprop("gear/launchbar/position-norm") and (getprop("controls/engines/engine[0]/throttle") < 0.95 or getprop("controls/engines/engine[1]/throttle") < 0.95 ))
    {
        if (!getprop("sim/model/f-14b/lights/ca-launch-bar"))
        {
            setprop("sim/model/f-14b/lights/ca-launch-bar",1);
            masterCaution = 1;
        }
        master_caution_active = 1;
    }
    else
    {
        if (getprop("sim/model/f-14b/lights/ca-launch-bar"))
        {
            setprop("sim/model/f-14b/lights/ca-launch-bar",0);
        }
    }

    if (canopy.getValue() > 0)
    {
		if (!ca_canopy_light.getBoolValue()){
            ca_canopy_light.setBoolValue(1);
            masterCaution = 1;
        }
        master_caution_active = 1;
    }
    else
    {
        ca_canopy_light.setBoolValue(0);
    }

    if (jettisonLeft.getValue() or jettisonRight.getValue()){
        masterCaution = 1;
        master_caution_active = 1;
        jettisonRight.setValue(0);
        jettisonLeft.setValue(0);
    }
    if (!master_caution_active){
        masterCaution_light_set.setBoolValue(0);
        masterCaution_light.setBoolValue(0);
    }
    else
    {
        if (masterCaution)
        {
            masterCaution_light.setBoolValue(1);
        }
    }
}

var master_caution_pressed = func {
    jettisonLeft.setValue(0);
    jettisonRight.setValue(0);
    masterCaution_light.setBoolValue(0);
    masterCaution_light_set.setBoolValue(0);
}

var electricsFrame = func {
    runEMMISC();
}

#
#
# hyd transfer switch - this will activate the bidi pump. 
setlistener("sim/model/f-14b/controls/hyds/hyd-transfer-pump-switch", func {
    var v = getprop("sim/model/f-14b/controls/hyds/hyd-transfer-pump-switch");
    if(usingJSBSim and v != nil)
    {
        if (v)
        {
            setprop("fdm/jsbsim/systems/hydraulics/hyd-transfer-pump-switch", 0);
        }
        else
        {
            setprop("fdm/jsbsim/systems/hydraulics/hyd-transfer-pump-switch", 1);
        }
    }
}, 1, 0);

#
#
# master gen panel 
setlistener("sim/model/f-14b/controls/electrics/l-gen-switch", func {
    var v = getprop("sim/model/f-14b/controls/electrics/l-gen-switch");
    if(usingJSBSim and v != nil)
    {
        if (v)
        {
            setprop("fdm/jsbsim/systems/electrics/lgenerator-status", 1);
        }
        else
        {
            setprop("fdm/jsbsim/systems/electrics/lgenerator-status", 0);
        }
    }
}, 1, 0);

setlistener("sim/model/f-14b/controls/electrics/r-gen-switch", func {
    var v = getprop("sim/model/f-14b/controls/electrics/r-gen-switch");
    if(usingJSBSim and v != nil)
    {
        if (v)
        {
            setprop("fdm/jsbsim/systems/electrics/rgenerator-status", 1);
        }
        else
        {
            setprop("fdm/jsbsim/systems/electrics/rgenerator-status", 0);
        }
    }
}, 1, 0);

setlistener("sim/model/f-14b/controls/electrics/emerg-gen-switch", func {
    var guard = getprop("sim/model/f-14b/controls/electrics/emerg-gen-guard-lever");
    if (!guard)
    {
        setprop("sim/model/f-14b/controls/electrics/emerg-gen-switch",1);
    }
    var v = getprop("sim/model/f-14b/controls/electrics/emerg-gen-switch");
    if(usingJSBSim and v != nil)
    {
        if (v)
        {
            setprop("fdm/jsbsim/systems/electrics/emerg-generator-status", 1);
        }
        else
        {
            setprop("fdm/jsbsim/systems/electrics/emerg-generator-status", 0);
        }
    }
}, 1, 0);

setlistener("sim/model/f-14b/controls/electrics/emerg-flt-hyd-switch", func {
    var guard = getprop("sim/model/f-14b/controls/electrics/emerg-flt-hyd-guard-lever");
    var v = getprop("sim/model/f-14b/controls/electrics/emerg-flt-hyd-switch");

    if (!guard)
    {
        setprop("sim/model/f-14b/controls/electrics/emerg-flt-hyd-switch",0);
    }
    if(usingJSBSim and v != nil)
    {
        setprop("fdm/jsbsim/systems/hydraulics/emerg-flyt-hyd-switch", v);
    }
}, 1, 0);

#
# master test panel selection switch 
var master_test_select_switch = func(n) {
var curval = getprop("sim/model/f-14b/controls/electrics/master-test-switch");
if (curval == nil)
curval = 0;

curval = curval + n;
if (curval < 0) curval = 10;
if (curval > 10) curval = 0;

    setprop("sim/model/f-14b/controls/electrics/master-test-switch", curval);
if (curval == 0)
{
setprop("sim/model/f-14b/lights/master-test-nogo",0);
setprop("sim/model/f-14b/lights/master-test-go",0);
setprop("sim/model/f-14b/lights/master-test-lights",0);
}
else if (curval == 10)
{
setprop("sim/model/f-14b/lights/master-test-lights",1);
setprop("sim/model/f-14b/lights/master-test-nogo",0);
setprop("sim/model/f-14b/lights/master-test-go",1);
}
else
{
setprop("sim/model/f-14b/lights/master-test-lights",0);
setprop("sim/model/f-14b/lights/master-test-nogo",1);
setprop("sim/model/f-14b/lights/master-test-go",0);
}
}
