var UPDATE_PERIOD = 0.05;
var main_loop_launched = 0; # Used to avoid to start the main loop twice.


# TACAN: nav[1]
var nav1_as_selected = getprop( "instrumentation/nav[1]/frequencies/selected-mhz" );; # the selected frequency if overriden from the tacan

var Tc               = props.globals.getNode("instrumentation/tacan");
var Vtc              = props.globals.getNode("instrumentation/nav[1]");
var Hsd              = props.globals.getNode("sim/model/f-14b/instrumentation/hsd", 1);
var TcFreqs          = Tc.getNode("frequencies");
var TcTrueHdg        = Tc.getNode("indicated-bearing-true-deg");
var TcMagHdg         = Tc.getNode("indicated-mag-bearing-deg", 1);
var TcIdent          = Tc.getNode("ident");
var TcServ           = Tc.getNode("serviceable");
var TcXY             = Tc.getNode("frequencies/selected-channel[4]");
var VtcIdent         = Vtc.getNode("nav-id");
var VtcFromFlag      = Vtc.getNode("from-flag");
var VtcToFlag        = Vtc.getNode("to-flag");
var VtcHdgDeflection = Vtc.getNode("heading-needle-deflection");
var VtcRadialDeg     = Vtc.getNode("radials/selected-deg");
var HsdFromFlag      = Hsd.getNode("from-flag", 1);
var HsdToFlag        = Hsd.getNode("to-flag", 1);
var HsdCdiDeflection = Hsd.getNode("needle-deflection", 1);
var TcXYSwitch       = props.globals.getNode("sim/model/f-14b/instrumentation/tacan/xy-switch", 1);
var TcModeSwitch     = props.globals.getNode("sim/model/f-14b/instrumentation/tacan/mode", 1);
var TrueHdg          = props.globals.getNode("orientation/heading-deg");
var MagHdg           = props.globals.getNode("orientation/heading-magnetic-deg");
var MagDev           = props.globals.getNode("orientation/local-mag-dev", 1);

var mag_dev = 0;
var tc_mode = 0;

aircraft.data.add(VtcRadialDeg, TcModeSwitch);


# Compute local magnetic deviation.
var local_mag_deviation = func {
	var true = TrueHdg.getValue();
	var mag = MagHdg.getValue();
	mag_dev = geo.normdeg( mag - true );
	if ( mag_dev > 180 ) mag_dev -= 360;
	MagDev.setValue(mag_dev); 
}


# Set nav[1] so we can use radials from a TACAN station.

var nav1_freq_update = func {
	if ( tc_mode != 0 and tc_mode != 4 ) {
		var tacan_freq = getprop( "instrumentation/tacan/frequencies/selected-mhz" );
        nav1_as_selected = getprop( "instrumentation/nav[1]/frequencies/selected-mhz" );
		setprop("instrumentation/nav[1]/frequencies/selected-mhz", tacan_freq);
	} else {
		setprop("instrumentation/nav[1]/frequencies/selected-mhz", nav1_as_selected);
	}
}
var FD_TAN3DEG = math.tan(3.0 / 57.29577950560105);

#
# ARA 63 (Military ILS type of system). This is a bit hardwired to
# work with the tuned carrier based on the TACAN channel which isn't
# right - but it is good enough.
var ara_63_update = func {
    if (f14.carrier_ara_63_position != nil and f14.carrier_ara_63_heading != nil)
    {
        var our_pos = geo.aircraft_position();
        range = our_pos.distance_to(f14.carrier_ara_63_position);
        var bearing_to = our_pos.course_to(f14.carrier_ara_63_position);
        var deviation = bearing_to - f14.carrier_ara_63_heading;
        deviation = deviation *0.1;

        if(getprop("/instrumentation/nav/gs-in-range") and getprop("instrumentation/nav/gs-distance") < range)
        {
# Use the standard civilian ILS as it is closer.
            setprop("sim/model/f-14b/instrumentation/nav/gs-in-range", getprop("instrumentation/nav/gs-in-range"));
            setprop("sim/model/f-14b/instrumentation/nav/gs-distance", getprop("instrumentation/nav/gs-distance"));
            setprop("sim/model/f-14b/instrumentation/nav/gs-needle-deflection-norm",getprop("instrumentation/nav/gs-needle-deflection-norm"));
            setprop("sim/model/f-14b/instrumentation/nav/heading-needle-deflection-norm",getprop("instrumentation/nav/heading-needle-deflection-norm"));
            setprop("sim/model/f-14b/instrumentation/nav/signal-quality-norm",getprop("instrumentation/nav/signal-quality-norm"));
            setprop("sim/model/f-14b/lights/acl-ready-light", 0);
            setprop("sim/model/f-14b/lights/ap-cplr-light",0);
            setprop("sim/model/f-14b/lights/light-wave-off",0);
            setprop("sim/model/f-14b/lights/light-10-seconds",0);
            setprop("sim/model/f-14b/lights/landing-chk-light", 0);
            return;
        }
        else if (range < 37000 and abs(deviation) < 3) # 20nm range F14-AAD-1 17.3.2
        {
            var deck_height=20; # the height of the MRC is included in the offset of the position + 2.93218; # 20 meters + height from MRC.

            var gs_height = ((range*FD_TAN3DEG)) + deck_height;
            var gs_deviation = (gs_height - our_pos.alt()) / 42.0; 

            if (gs_deviation > 1) gs_deviation = 1;
            else if (gs_deviation < -1) gs_deviation = -1;

            setprop("sim/model/f-14b/instrumentation/nav/gs-in-range", 1);
            setprop("sim/model/f-14b/instrumentation/nav/gs-needle-deflection-norm",gs_deviation);
# VOR_FULL_ARC = 20.0
# 17.3.2 localizer width 6 deg
# factor = 3.33
            setprop("sim/model/f-14b/instrumentation/nav/heading-needle-deflection-norm",deviation);
            setprop("sim/model/f-14b/instrumentation/nav/signal-quality-norm",1);
            setprop("sim/model/f-14b/instrumentation/nav/gs-distance", range);

            var u_fps = getprop("/velocities/uBody-fps");
            var eta = range / (u_fps / 3.281);

#            print (" range ",range," bearing to ",deviation," eta ",eta," gsheight ", gs_height, "gsdev ",gs_deviation);

            if(eta <= 10 and range < 800 and range > 150)
            {
                setprop("sim/model/f-14b/lights/light-10-seconds",1);
                if(math.abs(deviation) > 0.2 or math.abs(gs_deviation) > 0.2)
                {
                    setprop("sim/model/f-14b/lights/light-wave-off",1);
                }
                else
                {
                    setprop("sim/model/f-14b/lights/light-wave-off",0);
                }

            }
            else
            {
                setprop("sim/model/f-14b/lights/light-10-seconds",0);
                setprop("sim/model/f-14b/lights/light-wave-off",0);
            }
            # Set these lights on when in range and within altitude.
            # the lights come on but it is unspecified when they go off.
            # Ref: F-14AAD-1 Figure 17-4, p17-11 (pdf p685)
            if (range < 11000) 
            {
                if (our_pos.alt() > 300 and our_pos.alt() < 425 and abs(deviation) < 1 )
                {
                    setprop("sim/model/f-14b/lights/acl-ready-light", 1);
                    setprop("sim/model/f-14b/lights/ap-cplr-light",1);
                }
                if (range > 8000)  # extinguish at roughly 4.5nm from fix.
                {
                    setprop("sim/model/f-14b/lights/landing-chk-light", 1);
                }
                else
                {
                    setprop("sim/model/f-14b/lights/landing-chk-light", 0);
                }
            }
            else
            {
                setprop("sim/model/f-14b/lights/landing-chk-light", 0);
                setprop("sim/model/f-14b/lights/acl-ready-light", 0);
                setprop("sim/model/f-14b/lights/ap-cplr-light",0);
                setprop("sim/model/f-14b/lights/light-10-seconds",0);
                setprop("sim/model/f-14b/lights/light-wave-off",0);
            }
        }
        else
        {
            setprop("sim/model/f-14b/lights/landing-chk-light", 0);
            setprop("sim/model/f-14b/lights/light-10-seconds",0);
            setprop("sim/model/f-14b/lights/light-wave-off",0);
            setprop("sim/model/f-14b/lights/acl-ready-light", 0);
            setprop("sim/model/f-14b/lights/ap-cplr-light",0);
            setprop("sim/model/f-14b/instrumentation/nav/gs-in-range", 0);
            setprop("sim/model/f-14b/instrumentation/nav/gs-needle-deflection-norm",1);
            setprop("sim/model/f-14b/instrumentation/nav/heading-needle-deflection-norm",1);
            setprop("sim/model/f-14b/instrumentation/nav/signal-quality-norm",0);
            setprop("sim/model/f-14b/instrumentation/nav/gs-distance", 0);
        }
        return;
    }
#
# Use the standard civilian ILS
    setprop("sim/model/f-14b/instrumentation/nav/gs-in-range", getprop("instrumentation/nav/gs-in-range"));
    setprop("sim/model/f-14b/instrumentation/nav/gs-needle-deflection-norm",getprop("instrumentation/nav/gs-needle-deflection-norm"));
    setprop("sim/model/f-14b/instrumentation/nav/gs-distance", getprop("instrumentation/nav/gs-distance"));
    setprop("sim/model/f-14b/instrumentation/nav/heading-needle-deflection-norm",getprop("instrumentation/nav/heading-needle-deflection-norm"));
    setprop("sim/model/f-14b/instrumentation/nav/signal-quality-norm",getprop("instrumentation/nav/signal-quality-norm"));
    setprop("sim/model/f-14b/lights/acl-ready-light", 0);
    setprop("sim/model/f-14b/lights/ap-cplr-light",0);
}

var tacan_update = func {
	var tc_mode = TcModeSwitch.getValue();
	if ( tc_mode != 0 and tc_mode != 4 ) {

		# Get magnetic tacan bearing.
		var true_bearing = TcTrueHdg.getValue();
		var mag_bearing = geo.normdeg( true_bearing + mag_dev );
		if ( true_bearing != 0 ) {
			TcMagHdg.setDoubleValue( mag_bearing );
		} else {
			TcMagHdg.setDoubleValue(0);
		}

		# Get TACAN radials on HSD's Course Deviation Indicator.
		# CDI works with ils OR tacan OR vortac (which freq is tuned from the tacan panel).
		var tcnid = TcIdent.getValue();
		var vtcid = VtcIdent.getValue();
		if ( tcnid == vtcid ) {
			# We have a VORTAC.
			HsdFromFlag.setBoolValue(VtcFromFlag.getBoolValue());
			HsdToFlag.setBoolValue(VtcToFlag.getBoolValue());
			HsdCdiDeflection.setValue(VtcHdgDeflection.getValue());
		} else {
			# We have a legacy TACAN.
			var tcn_toflag = 1;
			var tcn_fromflag = 0;
			var tcn_bearing = TcMagHdg.getValue();
			var radial = VtcRadialDeg.getValue();
			var d = tcn_bearing - radial;
			if ( d > 180 ) { d -= 360 } elsif ( d < -180 ) { d += 360 }
			if ( d > 90 ) {
				d -= 180;
				tcn_toflag = 0;
				tcn_fromflag = 1;
			} elsif ( d < - 90 ) {
				d += 180;
				tcn_toflag = 0;
				tcn_fromflag = 1;
			}
			if ( d > 10 ) d = 10 ;
			if ( d < -10 ) d = -10 ;
			HsdFromFlag.setBoolValue(tcn_fromflag);
			HsdToFlag.setBoolValue(tcn_toflag);
			HsdCdiDeflection.setValue(d);
		}
	} else {
		TcMagHdg.setDoubleValue(0);
	}
}


# TACAN mode switch
var set_tacan_mode = func(s) {
	var m = TcModeSwitch.getValue();
	if ( s == 1 and m < 5 ) {
		m += 1;
	} elsif ( s == -1 and m > 0 ) {
		m -= 1;
	}
	TcModeSwitch.setValue(m);
	if ( m == 0 or m == 5 ) {
		TcServ.setBoolValue(0);
	} else {
		TcServ.setBoolValue(1);
	}
}


# TACAN XY switch
var tacan_switch_init = func {
	if (TcXY.getValue() == "X") { TcXYSwitch.setValue( 0 ) } else { TcXYSwitch.setValue( 1 ) }
}

var tacan_XYtoggle = func {
	if ( TcXY.getValue() == "X" ) {
		TcXY.setValue( "Y" );
		TcXYSwitch.setValue( 1 );
	} else {
		TcXY.setValue( "X" );
		TcXYSwitch.setValue( 0 );
	}
}

# One key bindings for RIO's ecm display mode or Pilot's hsd depending on the current view name
var mode_ecm_nav = props.globals.getNode("sim/model/f-14b/controls/rio-ecm-display/mode-ecm-nav");
var hsd_mode_nav = props.globals.getNode("sim/model/f-14b/controls/pilots-displays/hsd-mode-nav");
var select_key_ecm_nav = func {
	var v = getprop("sim/current-view/name");
	if (v == "RIO View") {
		mode_ecm_nav.setBoolValue( ! mode_ecm_nav.getBoolValue());
	} elsif (v == "Cockpit View") {
		var h = hsd_mode_nav.getValue() + 1;
		if ( h == 2 ) { h = -1 }
		hsd_mode_nav.setValue( h )
	}
}

# Save fuel state ###############
var bingo      = props.globals.getNode("sim/model/f-14b/controls/fuel/bingo", 1);
var fwd_lvl    = props.globals.getNode("consumables/fuel/tank[0]/level-lbs", 1); # fwd group 4700 lbs
var aft_lvl    = props.globals.getNode("consumables/fuel/tank[1]/level-lbs", 1); # aft group 4400 lbs
var Lbb_lvl    = props.globals.getNode("consumables/fuel/tank[2]/level-lbs", 1); # left beam box 1250 lbs
var Lsp_lvl    = props.globals.getNode("consumables/fuel/tank[3]/level-lbs", 1); # left sump tank 300 lbs
var Rbb_lvl    = props.globals.getNode("consumables/fuel/tank[4]/level-lbs", 1); # right beam box 1250 lbs
var Rsp_lvl    = props.globals.getNode("consumables/fuel/tank[5]/level-lbs", 1); # right sump tank 300 lbs
var Lw_lvl     = props.globals.getNode("consumables/fuel/tank[6]/level-lbs", 1); # left wing tank 2000 lbs
var Rw_lvl     = props.globals.getNode("consumables/fuel/tank[7]/level-lbs", 1); # right wing tank 2000 lbs
var Le_lvl     = props.globals.getNode("consumables/fuel/tank[8]/level-lbs", 1); # left external tank 2000 lbs
var Re_lvl     = props.globals.getNode("consumables/fuel/tank[9]/level-lbs", 1); # right external tank 2000 lbs
var fwd_lvl_gal_us    = props.globals.getNode("consumables/fuel/tank[0]/level-gal_us", 1);
var aft_lvl_gal_us    = props.globals.getNode("consumables/fuel/tank[1]/level-gal_us", 1);
var Lbb_lvl_gal_us    = props.globals.getNode("consumables/fuel/tank[2]/level-gal_us", 1);
var Lsp_lvl_gal_us    = props.globals.getNode("consumables/fuel/tank[3]/level-gal_us", 1);
var Rbb_lvl_gal_us    = props.globals.getNode("consumables/fuel/tank[4]/level-gal_us", 1);
var Rsp_lvl_gal_us    = props.globals.getNode("consumables/fuel/tank[5]/level-gal_us", 1);
var Lw_lvl_gal_us     = props.globals.getNode("consumables/fuel/tank[6]/level-gal_us", 1);
var Rw_lvl_gal_us     = props.globals.getNode("consumables/fuel/tank[7]/level-gal_us", 1);
var Le_lvl_gal_us     = props.globals.getNode("consumables/fuel/tank[8]/level-gal_us", 1);
var Re_lvl_gal_us     = props.globals.getNode("consumables/fuel/tank[9]/level-gal_us", 1);
aircraft.data.add(	bingo,
					fwd_lvl, aft_lvl, Lbb_lvl, Lsp_lvl, Rbb_lvl, Rsp_lvl, Lw_lvl,
					Rw_lvl, Le_lvl, Re_lvl,
					fwd_lvl_gal_us, aft_lvl_gal_us, Lbb_lvl_gal_us, Lsp_lvl_gal_us,
					Rbb_lvl_gal_us, Rsp_lvl_gal_us, Lw_lvl_gal_us, Rw_lvl_gal_us,
					Le_lvl_gal_us, Re_lvl_gal_us,
					"sim/model/f-14b/systems/external-loads/station[2]/type",
					"sim/model/f-14b/systems/external-loads/station[7]/type",
					"consumables/fuel/tank[8]/selected",
					"consumables/fuel/tank[9]/selected",
					"sim/model/f-14b/systems/external-loads/external-tanks",
					"sim/weight[1]/weight-lb","sim/weight[6]/weight-lb"
				);




var g_max   = props.globals.getNode("sim/model/f-14b/instrumentation/g-meter/g-max", 1);
var g_min   = props.globals.getNode("sim/model/f-14b/instrumentation/g-meter/g-min", 1);
aircraft.data.add( g_min, g_max );
var GMaxMav = props.globals.getNode("sim/model/f-14b/instrumentation/g-meter/g-max-mooving-average", 1);
GMaxMav.initNode(nil, 0);
var g_mva_vec     = [0,0,0,0,0];

var g_min_max = func {
	# Records g min, g max and 0.5 sec averaged max values. g_min_max(). Has to be
	# fired every 0.1 sec.
	var curr = f14.currentG;
	var max = g_max.getValue();
	var min = g_min.getValue();
	if ( curr >= max ) {
		g_max.setDoubleValue(curr);
	} elsif ( curr <= min ) {
		g_min.setDoubleValue(curr);
	}
	var g_max_mav = (g_mva_vec[0]+g_mva_vec[1]+g_mva_vec[2]+g_mva_vec[3]+g_mva_vec[4])/5;
	pop(g_mva_vec);
	g_mva_vec = [curr] ~ g_mva_vec;
	GMaxMav.setValue(g_max_mav);
}

# VDI #####################
var ticker = props.globals.getNode("sim/model/f-14b/instrumentation/ticker", 1);
aircraft.data.add("sim/model/f-14b/controls/VDI/brightness",
	"sim/model/f-14b/controls/VDI/contrast",
	"sim/model/f-14b/controls/VDI/on-off",
	"sim/hud/visibility[0]",
	"sim/hud/visibility[1]",
	"sim/model/f-14b/controls/hud/on-off",
	"sim/model/f-14b/controls/HSD/on-off",
	"sim/model/f-14b/controls/pilots-displays/mode/aa-bt",
	"sim/model/f-14b/controls/pilots-displays/mode/ag-bt",
	"sim/model/f-14b/controls/pilots-displays/mode/cruise-bt",
	"sim/model/f-14b/controls/pilots-displays/mode/ldg-bt",
	"sim/model/f-14b/controls/pilots-displays/mode/to-bt",
	"sim/model/f-14b/controls/pilots-displays/hsd-mode-nav");

var inc_ticker = func {
	# ticker used for VDI background continuous translation animation
	var tick = ticker.getValue();
	tick += 1 ;
	ticker.setDoubleValue(tick);
}

# Air Speed Indicator #####
aircraft.data.add("sim/model/f-14b/instrumentation/airspeed-indicator/safe-speed-limit-bug");

# Radar Altimeter #########
aircraft.data.add("sim/model/f-14b/instrumentation/radar-altimeter/limit-bug");

# Lighting ################
aircraft.data.add(
	"sim/model/f-14b/controls/lighting/hook-bypass",
	"controls/lighting/instruments-norm",
	"controls/lighting/panel-norm",
	"sim/model/f-14b/controls/lighting/anti-collision-switch",
	"sim/model/f-14b/controls/lighting/position-flash-switch",
	"sim/model/f-14b/controls/lighting/position-wing-switch");

# HSD #####################
var hsd_mode_node = props.globals.getNode("sim/model/f-14b/controls/pilots-displays/hsd-mode-nav");


# Afterburners FX counter #
var burner = 0;
var BurnerN = props.globals.getNode("sim/model/f-14b/fx/burner", 1);
BurnerN.setValue(burner);


# AFCS ####################

# Commons vars:
var Mach = props.globals.getNode("velocities/mach");
var mach = 0;

# Filters
var PitchPidPGain = props.globals.getNode("sim/model/f-14b/systems/afcs/pitch-pid-pgain", 1);
var PitchPidDGain = props.globals.getNode("sim/model/f-14b/systems/afcs/pitch-pid-dgain", 1);
var VsPidPGain    = props.globals.getNode("sim/model/f-14b/systems/afcs/vs-pid-pgain", 1);
var pgain = 0;

var afcs_filters = func {
	var f_mach = mach + 0.01;
	var p_gain = -0.008 / ( f_mach * f_mach * f_mach * f_mach * 1.2);
	if ( p_gain < -0.04 ) p_gain = -0.04;
	var d_gain = 0.4 * ( 2.5 - ( mach * 2 ));
	PitchPidPGain.setValue(p_gain);
	PitchPidDGain.setValue(d_gain);
	VsPidPGain.setValue(p_gain/10);
}


# Drag Computation
var Drag       = props.globals.getNode("sim/model/f-14b/systems/fdm/drag", 1);
var GearPos    = props.globals.getNode("gear/gear[1]/position-norm", 1);
var SpeedBrake = props.globals.getNode("controls/flight/speedbrake", 1);
var AB         = props.globals.getNode("engines/engine/afterburner", 1);

var sb_i = 0.2;
var alt_drag_factor = 25000;
var alt_drag_factor2 = 20000;

controls.stepSpoilers = func(s) {

    if (f14.usingJSBSim){
        var curval = getprop("controls/flight/speedbrake");

        if (s < 0 and curval > 0)
            setprop("controls/flight/speedbrake", curval+s/5);
        else if (s > 0 and curval < 1)
            setprop("controls/flight/speedbrake", curval+s/5);

        return; 
    }

	var sb = SpeedBrake.getValue();
	if ( s == 1 ) {
		sb += sb_i;
		if ( sb > 1 ) { sb = 1 }
		SpeedBrake.setValue(sb);
	} elsif ( s == -1 ) {
		sb -= sb_i;
		if ( sb < 0 ) { sb = 0 }
		SpeedBrake.setValue(sb);
	}
}

var compute_drag = func {

    if (f14.usingJSBSim) return;  # in the FDM

	var gearpos = GearPos.getValue();
	var ab = AB.getValue(); # Prevent supercruise when no afterburners
	var gear_drag = 0;
	if ( gearpos > 0.8 ) {
		gear_drag = mach * 0.5;
	}
	# Additional drag based on altitude so we can't pass over sound speed without
	# afterburners when altitude is above 30k ft.
	var alt = getprop("position/altitude-ft");
	var alt_drag = 0;
	if ( alt > 30000 ) {
		var alt_floor = alt - 30000;
		alt_drag += (alt_floor / 50000);
	}
	#print(alt_drag);
	if ( mach <= 1 ) {
		Drag.setValue((mach * 0.5) + gear_drag + alt_drag);
	} elsif (mach <= 1.175) {
		Drag.setValue((math.sin((mach * 4.5) + 5.6) * 0.7) + 0.93 + gear_drag + alt_drag - (ab/2));
	} else {
		Drag.setValue((mach * 0.7) - 0.6 + gear_drag + alt_drag - (ab/2));
	}
}


# Send basic instruments data over MP for backseaters.
var InstrString = props.globals.getNode("sim/multiplay/generic/string[1]", 1);
var InstrString2 = props.globals.getNode("sim/multiplay/generic/string[2]", 1);
var IAS = props.globals.getNode("instrumentation/airspeed-indicator/indicated-speed-kt");
var FuelTotal = props.globals.getNode("sim/model/f-14b/instrumentation/fuel-gauges/total");
var TcBearing = props.globals.getNode("instrumentation/tacan/indicated-mag-bearing-deg");
var TcInRange = props.globals.getNode("instrumentation/tacan/in-range");
var TcRange = props.globals.getNode("instrumentation/tacan/indicated-distance-nm");
var RangeRadar2       = props.globals.getNode("instrumentation/radar/radar2-range");

var SteerModeAwl = props.globals.getNode("sim/model/f-14b/controls/pilots-displays/steer/awl-bt");
var SteerModeDest = props.globals.getNode("sim/model/f-14b/controls/pilots-displays/steer/dest-bt");
var SteerModeMan = props.globals.getNode("sim/model/f-14b/controls/pilots-displays/steer/man-bt");
var SteerModeTcn = props.globals.getNode("sim/model/f-14b/controls/pilots-displays/steer/tacan-bt");
var SteerModeVec = props.globals.getNode("sim/model/f-14b/controls/pilots-displays/steer/vec-bt");
var SteerModeCode = props.globals.getNode("sim/model/f-14b/controls/pilots-displays/steer-submode-code");

instruments_data_export = func {
	# Air Speed indicator.
	var ias            = sprintf( "%01.1f", IAS.getValue());
	# Mach
	var s_mach         = sprintf( "%01.1f", mach);
	# Fuel Totalizer.
	var fuel_total     = sprintf( "%01.0f", FuelTotal.getValue());
	# BDHI.
	var tc_mode        = TcModeSwitch.getValue();
	if ( TcBearing.getValue() != nil ) {
		var tc_bearing  = sprintf( "%01.1f", TcBearing.getValue());
	} else {
		var tc_bearing  = "0.00";
	}
	var tc_in_range    = TcInRange.getValue() ? 1 : 0;
	var tc_range       = sprintf( "%01.1f", TcRange.getValue());
	# Steer Submode Code
	steer_mode_code = SteerModeCode.getValue();
	# CDI
	var cdi = sprintf( "%01.2f", HsdCdiDeflection.getValue());
	var radial = VtcRadialDeg.getValue();

	var l_s = [ias, s_mach, fuel_total, tc_mode, tc_bearing, tc_in_range, tc_range, steer_mode_code, cdi, radial];
	var str = "";
	foreach( s ; l_s ) {
		str = str ~ s ~ ";";
	}
    #
    # aircraft powered - for the back seater this is a yes/no
    if ( getprop("/fdm/jsbsim/systems/electrics/ac-essential-bus1") > 0)
        str = str ~ "1" ~ ";";
    else
        str = str ~ "0" ~ ";";

	InstrString.setValue(str);

	#InstrString2.setValue(sprintf( "%01.0f", RangeRadar2.getValue()));

}


# Main loop ###############
var cnt = 0;
var ArmSysRunning = props.globals.getNode("sim/model/f-14b/systems/armament/system-running");

var main_loop = func {
	cnt += 1;
	# done each 0.05 sec.
	mach = Mach.getValue();
	awg_9.rdr_loop();
	var a = cnt / 2;

	burner +=1;
	if ( burner == 3 ) { burner = 0 }
	BurnerN.setValue(burner);

	if (f14.usingJSBSim)
    {
	    if ( getprop("sim/replay/time") > 0 ) 
            setprop ("/orientation/alpha-indicated-deg", (getprop("/orientation/alpha-deg") - 0.797) / 0.8122);
        else
    		setprop ("/orientation/alpha-indicated-deg", getprop("fdm/jsbsim/aero/alpha-indicated-deg"));
    }
	else
		setprop ("/orientation/alpha-indicated-deg", getprop("/orientation/alpha-deg"));

	if ( ( a ) == int( a )) {
		# done each 0.1 sec, cnt even.
		inc_ticker();
		tacan_update();
ara_63_update();
		f14_hud.update_hud();
		g_min_max();
		f14_chronograph.update_chrono();
		if (( cnt == 6 ) or ( cnt == 12 )) {
			# done each 0.3 sec.
			f14.fuel_update();
			if ( cnt == 12 ) {
				# done each 0.6 sec.
				local_mag_deviation();
				nav1_freq_update();
				cnt = 0;
			}
		}
	} else {
		# done each 0.1 sec, cnt odd.
		awg_9.hud_nearest_tgt();
		instruments_data_export();
		if ( ArmSysRunning.getBoolValue() ) {
			f14.armament_update();
		}
		if (( cnt == 5 ) or ( cnt == 11 )) {
			# done each 0.3 sec.
			afcs_filters();
			compute_drag();
			if ( cnt == 11 ) {
				# done each 0.6 sec.
				compute_drag();
			}
		}
	}
	settimer(main_loop, UPDATE_PERIOD);
}

var common_init = func {
    if(f14.usingJSBSim)
    {
print("Setting replay medium res to 50hz");
setprop("sim/replay/buffer/medium-res-sample-dt", 0.02); 
setprop("/controls/flight/SAS-roll",0);
setprop("sim/model/f-14b/controls/AFCS/altitude",0);
setprop("sim/model/f-14b/controls/AFCS/heading-gt",0);
setprop("sim/model/f-14b/controls/AFCS/engage",0);
if (getprop("/fdm/jsbsim/position/h-agl-ft") != nil)
{
        if (getprop("/fdm/jsbsim/position/h-agl-ft") < 500) 
        {
#            if(getprop("/fdm/jsbsim/fcs/gear/gear-pos-norm") == nil or getprop("/fdm/jsbsim/fcs/gear/gear-pos-norm") < 1)
#            {
                print("Starting with gear down as below 500 ft");
                setprop("/controls/gear/gear-down", 1);
#                setprop("/fdm/jsbsim/fcs/gear/gear-cmd-norm",1);
#                setprop("/fdm/jsbsim/fcs/gear/gear-dmd-norm",1);
#                setprop("/fdm/jsbsim/fcs/gear/gear-pos-norm",1);
#                setprop("/fdm/jsbsim/fcs/gear/gear-pos-norm",1);
#            }
            if (getprop("/fdm/jsbsim/position/h-agl-ft") < 50) 
            {
                setprop("/controls/gear/brake-parking",1);
                print("--> Set parking brake as below 50 ft");
            }
        }
        else 
        {
#            if(getprop("/fdm/jsbsim/fcs/gear/gear-pos-norm") == nil or getprop("/fdm/jsbsim/fcs/gear/gear-pos-norm") > 0)
#            {
                print("Starting with gear up as above 500 ft");
                setprop("/controls/gear/gear-down", 0);
                setprop("/fdm/jsbsim/fcs/gear/gear-cmd-norm",0);
                setprop("/fdm/jsbsim/fcs/gear/gear-dmd-norm",0);
                setprop("/fdm/jsbsim/fcs/gear/gear-pos-norm",0);
                setprop("/fdm/jsbsim/fcs/gear/gear-pos-norm",0);
#            }
            setprop("/controls/gear/brake-parking",0);
        }
}
        if (f14.carrier_ara_63_position != nil and geo.aircraft_position() != nil)
        {
            if (geo.aircraft_position().distance_to(f14.carrier_ara_63_position) < 6000 and geo.aircraft_position().distance_to(f14.carrier_ara_63_position) > 400)
            {
                print("Starting with hook down as near carrier");
                setprop("controls/gear/tailhook",1);
                setprop("fdm/jsbsim/systems/hook/tailhook-cmd-norm",1);
            }

        }
        var lat = getprop("/position/latitude-deg");
        var lon = getprop("/position/longitude-deg");
        var info = geodinfo(lat, lon);
#        debug.dump(info);
        if (info[1] == nil)
        {
# seems to be that we could be on a carrier

            var carrier = getprop("/sim/presets/carrier");
            if (carrier != nil and carrier != "" ) # and substr(getprop("/sim/presets/parkpos"),0,4) == "cat-")
            {
                if (f14.carrier_ara_63_position == nil or geo.aircraft_position().distance_to(f14.carrier_ara_63_position) < 200)
                {
                    print("Special init for Carrier cat launch");
                    setprop("/fdm/jsbsim/systems/systems/holdback/holdback-cmd",1);
                    setprop("gear/launchbar/position-norm",1);
                    setprop("/fdm/jsbsim/position/h-agl-ft",    getprop("sim/alt"));
                }
            }

#        var parkpos = getprop("/sim/presets/parkpos");
#        if (getprop("/sim/presets/carrier") != "" and parkpos != nil and size(parkpos) > 4 and substr(parkpos,0,4) == "cat-")
#        {
#            print ("Special init for cat-");

#    setprop("/fdm/jsbsim/position/h-sl-ft",10+getprop("/fdm/jsbsim/position/h-sl-ft"));
#        setprop("/fdm/jsbsim/position/h-agl-ft",    getprop("sim/alt"));
#        }
        }
    }
}

# Init ####################
var init = func {
	print("Initializing F-14B Systems");
	f14.ext_loads_init();
	f14.init_fuel_system();
	aircraft.data.load();
	f14_net.mp_network_init(1);
	f14.weapons_init();
	ticker.setDoubleValue(0);
	local_mag_deviation();
	tacan_switch_init();
	radardist.init();
	awg_9.init();
	an_arc_182v.init();
	an_arc_159v1.init();
	setprop("controls/switches/radar_init", 0);
	# properties to be stored
	foreach (var f_tc; TcFreqs.getChildren()) {
		aircraft.data.add(f_tc);
	}

    common_init();
    if (f14.usingJSBSim)
    {
        var carrier = getprop("/sim/presets/carrier");
        if (carrier != nil and carrier != "" and getprop("/fdm/jsbsim/position/h-agl-ft") < 100) 
        {
            print ("Special launch init for cat-");
            setprop("/fdm/jsbsim/position/h-agl-ft",    getprop("sim/alt"));
            setprop("orientation/pitch-deg",0);
        }
    }
    if ( ! main_loop_launched ) {
        settimer(main_loop, 0.5);
        settimer(f14.external_load_loop, 3);
        main_loop_launched = 1;
    }
}

setlistener("sim/signals/fdm-initialized", init);
setprop("/sim/alt", 8.850329274);
setprop("/sim/init-delay", 0.1);

setlistener("sim/signals/reinit", func (reinit) {
    print("Reint ",reinit);
    if (reinit.getValue()) {
        f14.internal_save_fuel();
        setprop("/fdm/jsbsim/position/h-agl-ft",    getprop("sim/alt"));
    } else {
        common_init();
        settimer(func { f14.internal_restore_fuel() }, 0.6);
        common_init();
        settimer(func { common_init() }, getprop("/sim/init-delay"));
    }
});
# Miscelaneous definitions and tools ############

# warning lights medium speed flasher
# -----------------------------------
aircraft.light.new("sim/model/f-14b/lighting/warn-medium-lights-switch", [0.3, 0.2]);
setprop("sim/model/f-14b/lighting/warn-medium-lights-switch/enabled", 1);


# Old Fashioned Radio Button Selectors
# -----------------------------------
# Where group is the parent node that contains the radio state nodes as children.

sel_displays_main_mode = func(group, which) {
	foreach (var n; props.globals.getNode(group).getChildren()) {
		n.setBoolValue(n.getName() == which);
	}
}

sel_displays_sub_mode = func(group, which) {
	foreach (var n; props.globals.getNode(group).getChildren()) {
		n.setBoolValue(n.getName() == which);
	}
	var steer_mode_code = 0;
	if ( SteerModeDest.getBoolValue() ) { steer_mode_code = 1 }
	elsif ( SteerModeMan.getBoolValue() ) { steer_mode_code = 2 }
	elsif ( SteerModeTcn.getBoolValue() ) { steer_mode_code = 3 }
	elsif ( SteerModeVec.getBoolValue() ) { steer_mode_code = 4 }
	SteerModeCode.setValue(steer_mode_code);
}



