#----------------------------------------------------------------------------
# Sweep angle computer     
# Original F-14B : display purposes only ! No variable sweep on YaSim
# Richard Harrison JSBSim version (rjh@zaretto.com) has sweep angle in the 
# aerodynamic data - based on NASA data (see f-14a.xml for references) and
# it makes a lot of difference to the handling.
#----------------------------------------------------------------------------


# rjh@zaretto.com: changed the following in accordance with NAVAIR 01-F14AAD-1 Figure 2-48: p. 2-87
#                : max sweep now 68 (was 65)
#                : Machlo 0.41
#	<14000 feet
# sweep  MN
# 20	0.448 
# 21	0.711
# 68	0.913
#	>20000 feet
# sweep  MN
# 20	0.448
# 21	0.632
# 68	0.913
#
# main flaps max sweep is 47.5 to 50 until MN 0.913 
# aux flaps extended limit 21 deg
# 
var MachLo = 0.632;
var MachHi = 0.973;
var MachSweepRange = MachHi - MachLo;
#
var OverSweepAngle = 68.0;
var SweepRate = 2.0;    # degrees per second
var SweepVsMachLo = 22.0;  # for simplicity we will ignore the 21degrees sweep
var SweepVsMachHi = 60.0;
var currentSweepMode = 0; # 0=auto,1=man,2=off,3=emer,4=over
if (usingJSBSim) setprop("/fdm/jsbsim/fcs/wing-sweep-auto",1);

var minSweep = 0.2941176470588235;
var maxSweepAuxFlaps = 0.3235294117647059;
var maxSweep = 1.0 - minSweep;
var mnSweepFactor = (maxSweep - minSweep) / (MachHi - MachLo);
# Functions
    
setprop("/fdm/jsbsim/fcs/wing-sweep-cmd",0.2941176470588235);
setprop("/fdm/jsbsim/fcs/wing-sweep-pilot-dmd",0.2941176470588235);

var updateSweepIndicators = func {
# 0=auto,1=man,2=off,3=emer,4=over
		setprop("sim/model/f-14b/systems/wing-sweep/mode/off", currentSweepMode==2);
		setprop("sim/model/f-14b/systems/wing-sweep/mode/auto", currentSweepMode==0);
		setprop("sim/model/f-14b/systems/wing-sweep/mode/man",  currentSweepMode==1);
		setprop("sim/model/f-14b/systems/wing-sweep/mode/emer", currentSweepMode==3);
		setprop("sim/model/f-14b/systems/wing-sweep/mode/over", currentSweepMode==4);
}

var set_sweep = func(n) {
    print("Set sweep ",n);
    if (n == 4) 
    {
    	if ( wow )
        {
    		# Flaps/sweep interlock
    		#do not move the wings until auxiliary flaps are in.
            if (usingJSBSim)
            {
                if (getprop ("controls/flight/flaps") > 0.05) return;
            }
            else
            {
        		if (getprop ("surface-positions/aux-flap-pos-norm") > 0.05) return;
            }
    		WingSweep = 1.2;
        }
        else
        {
            #
            # if we get here then it means either an oversweep has been requested when not on the ground so set sweep to auto
        	OverSweep = false;
            currentSweepMode = 0;
        }
    }
    if (n == 1)  ## manual - set to current position
    {
        setprop("fdm/jsbsim/fcs/wing-sweep-pilot-dmd", currentSweep);
    }
    currentSweepMode = n;
    AutoSweep = currentSweepMode == 0;
   	OverSweep = currentSweepMode == 4;
    setprop("/fdm/jsbsim/fcs/wing-sweep-auto",AutoSweep);
    updateSweepIndicators();
}

var wingsweep1Degree = 0.0147058823529412;
var maxSweepWithFlaps = 0.3235294117647059;
var maxSweepWithOnlyMainFlaps = 0.7352941176470588;

set_sweep(0);

var move_wing_sweep = func(delta){
    var curval = getprop("fdm/jsbsim/fcs/wing-sweep-pilot-dmd");
    if(curval < 0.2941176470588235) curval = 0.2941176470588235;
    if (currentSweepMode != 1)
    {
        set_sweep(1);
    }
    if (delta < 0 and curval > 0.2941176470588235)
    {
        setprop("fdm/jsbsim/fcs/wing-sweep-pilot-dmd", curval - wingsweep1Degree);
    }
    
    if (delta > 0 and curval < 1)
    {
        curval = curval + wingsweep1Degree;
        if(curval > maxSweepWithFlaps and getprop("controls/flight/flaps") > 0.4){
            curval = maxSweepWithFlaps;
        }
        setprop("fdm/jsbsim/fcs/wing-sweep-pilot-dmd", curval);
    }
    print("wingsweep ",delta," ",curval,getprop("fdm/jsbsim/fcs/wing-sweep-pilot-dmd"));
}

var toggleOversweep = func {
    if (OverSweep)
    {
        set_sweep(0);
    }
    else
    {
        set_sweep(4);
    }
}

var computeSweep = func {

# The JSBSim model includes sweep computer inside the fdm.
    if (usingJSBSim)
    {
    	if ( getprop("sim/replay/time") > 0 ) { return }

        if (currentSweepMode != 4)
            currentSweep = getprop("/fdm/jsbsim/fcs/wing-sweep-cmd");
        else
            currentSweep = 1.2;

        var cadc_sweep = getprop("fdm/jsbsim/fcs/wing-sweep-cadc-dmd");
        WingSweep = currentSweep;
        if(currentSweepMode == 1){
            if (currentSweep < cadc_sweep){
                currentSweepMode = 0; 
                updateSweepIndicators();
                setprop("/fdm/jsbsim/fcs/wing-sweep-auto",1);
            }
        }
        setprop("controls/flight/wing-sweep-cadc-dmd",cadc_sweep);
        setprop("controls/flight/wing-sweep",getprop("fdm/jsbsim/fcs/wing-sweep-dmd"));
        setprop("surface-positions/wing-pos-norm", getprop("fdm/jsbsim/fcs/wing-sweep-dmd"));
        return;
    }
#
#    setprop("controls/flight/wing-sweep-cadc-dmd",getprop("fdm/jsbsim/fcs/wing-sweep-cadc-dmd"));

    current_mach = getprop ("/velocities/mach");

    if (current_mach == nil)
        return;

# Flaps/sweep interlock
# do not move the wings until auxiliary flaps are in.

    if (getprop ("surface-positions/aux-flap-pos-norm") > 0.05) return;

# Sweep vs. Mach motion
    if (current_mach <= MachLo) {
        WingSweep = minSweep;
    } elsif (current_mach < MachHi) {
        WingSweep = minSweep + (current_mach * mnSweepFactor); #(current_mach - MachLo) / MachSweepRange;
    } else {
        WingSweep = maxSweep;
    }
    setprop("/fdm/jsbsim/fcs/wing-sweep-cmd",WingSweep);
}
