# EXPORT : functions ending by export are called from xml
# CRON : functions ending by cron are called from timer
# SCHEDULE : functions ending by schedule are called from cron




# =======================
# CONSTELLATION CONSTANTS
# =======================

ConstantAero = {};

ConstantAero.new = func {
   var obj = { parents : [ConstantAero],

               NBINSTRUMENTS : 2,                       # and any system in double
               NBGEARS : 3,                             # and any system in triple
               NBENGINES : 4,                           # and any system in quadruple
               NBTANKS : 7,

               ENGINE1 : 0,
               ENGINE2 : 1,
               ENGINE3 : 2,
               ENGINE4 : 3
         };

   obj.init();

   return obj;
}

ConstantAero.init = func {
}

ConstantAero.isInboardEngine = func( index ) {
   var result = 0.0;

   if( index == me.ENGINE2 or index == me.ENGINE3 ) {
       result = 1.0;
   }

   return result;
}

ConstantAero.outboardTank = func( index ) {
   var result = index;

   if( me.isInboardEngine( index ) ) {
       result = index + me.NBENGINES;
   }

   return result;
}


# =========
# CONSTANTS
# =========

Constant = {};

Constant.new = func {
   var obj = { parents : [Constant],

               TRUE : 1.0,                             # no boolean
               FALSE : 0.0,

# time
               HOURTOSECOND : 3600.0,
               MINUTETOSECOND : 60.0,

# weight
               GALUSTOLB : 6.6,                        # 1 US gallon = 6.6 pound
               LBTOGALUS : 0.0
         };

   obj.init();

   return obj;
};

Constant.init = func {
   me.LBTOGALUS = 1 / me.GALUSTOLB;
}


# ======
# SYSTEM
# ======

# for inheritance, the system must be the last of parents.
System = {};

# not called by child classes !!!
System.new = func {
   var obj = { parents : [System],

               SYSSEC : 0.0,                               # to be defined !

               ready : constant.FALSE,                     # waits for end of initialization

               RELOCATIONFT : 0.0,                         # max descent speed around 6000 feet/minute.

               altseaft : 0.0,
  
               dependency : {},
               itself : {},
               noinstrument : {}
         };

   return obj;
};

System.inherit_system = func( path, subpath = "" ) {
   var fullpath = path;
   var ctrlpath = "";

   var obj = System.new();

   me.SYSSEC = obj.SYSSEC;
   me.ready = obj.ready;
   me.RELOCATIONFT = obj.RELOCATIONFT;
   me.altseaft = obj.altseaft;
   me.dependency = obj.dependency;
   me.itself = obj.itself;
   me.noinstrument = obj.noinstrument;

   ctrlpath = string.replace(path,"systems","controls");
   if( fullpath == ctrlpath ) {
       ctrlpath = string.replace(path,"instrumentation","controls");
   }

   # reserved entry
   if( subpath == "" ) {
       # instrumentation/fuel
       me.itself["root"] = props.globals.getNode(path);

       # controls/fuel
       me.itself["root-ctrl"] = props.globals.getNode(ctrlpath);
   }
   else {
       # instrumentation/fuel-consumed[0]
       # instrumentation/fuel-consumed[1]
       # instrumentation/fuel-consumed[2]
       if( find("instrumentation/", fullpath) < 0 and
           find("systems/", fullpath ) < 0 ) {
           fullpath = fullpath ~ "/" ~ subpath;
       }

       # systems/engines/engine
       me.itself["root"] = props.globals.getNode(path).getChildren(subpath);

       # controls/engines/engine
       me.itself["root-ctrl"] = props.globals.getNode(ctrlpath).getChildren(subpath);
   }

   fullpath = fullpath ~ "/relations";

   me.loadtree( fullpath ~ "/dependency", me.dependency );
   me.loadtree( fullpath ~ "/itself", me.itself );
   me.loadtree( fullpath ~ "/noinstrument", me.noinstrument );
}

System.set_rate_ancestor = func( rates ) {
   me.SYSSEC = rates;

   me.RELOCATIONFT = constantaero.MAXFPM / ( constant.MINUTETOSECOND / me.SYSSEC );
}

# property access is faster through its node, than parsing its string
System.loadtree = func( path, table ) {
   var children = nil;
   var subchildren = nil;
   var name = "";
   var component = "";
   var subcomponent = "";
   var value = "";

   if( props.globals.getNode(path) != nil ) {
       children = props.globals.getNode(path).getChildren();
       foreach( var c; children ) {
          name = c.getName();
          subchildren = c.getChildren();

          # <dependency>
          #  <engine>
          #   <component>/engines</component>
          #   <subcomponent>engine</subcomponent>
          #  </engine>
          if( size(subchildren) > 0 ) {
              component = c.getChild("component").getValue();
              subcomponent = c.getChild("subcomponent").getValue();
              table[name] = props.globals.getNode(component).getChildren(subcomponent);
          }

          #  <altimeter>/instrumentation/altimeter[0]</altimeter>
          # </dependency>
          else {
              value = c.getValue();
              table[name] = props.globals.getNode(value);
          }
      }
   }
}

System.is_moving = func {
   var result = constant.FALSE;

   # must exist in XML !
   var aglft = me.noinstrument["agl"].getValue();
   var speedkt = me.noinstrument["airspeed"].getValue();

   if( aglft >=  constantaero.AGLTOUCHFT or speedkt >= constantaero.TAXIKT ) {
       result = constant.TRUE;
   }

   return result;
}

System.is_relocating = func {
   var result = constant.FALSE;
   var variationftpm = 0.0;

   # must exist in XML !
   var altft = me.noinstrument["altitude"].getValue();

   # relocation in flight, or at another airport
   variationftpm = altft - me.altseaft;
   if( variationftpm < - me.RELOCATIONFT or variationftpm > me.RELOCATIONFT ) {
       result = constant.TRUE;
   }

   me.altseaft = altft;

   return result;
}

System.is_ready = func {
    # if there is electrical power, there should be also hydraulics
    if( !me.ready ) {
        # must exist in XML !
        me.ready = me.dependency["electric"].getChild("specific").getValue();
    }

    return me.ready;
}

System.speed_ratesec = func( steps ) {
   var speedup = me.noinstrument["speed-up"].getValue();

   if( speedup > 1 ) {
       steps = steps / speedup;
   }

   return steps;
}

System.speed_timesec = func( steps ) {
   var speedup = me.noinstrument["speed-up"].getValue();

   if( speedup > 1 ) {
       steps = steps * speedup;
   }

   return steps;
}
