# =====
# Doors
# =====

crew       = aircraft.door.new("/sim/model/door-positions/crew", 2, 0 );
passenger  = aircraft.door.new("/sim/model/door-positions/passenger", 2, 0 );
engine     = aircraft.door.new("/sim/model/door-positions/engine", 2, 0 )
