<?xml version="1.0" encoding="UTF-8" standalone="no"?>
<!-- Created with Inkscape (http://www.inkscape.org/) -->

<svg
   xmlns:dc="http://purl.org/dc/elements/1.1/"
   xmlns:cc="http://creativecommons.org/ns#"
   xmlns:rdf="http://www.w3.org/1999/02/22-rdf-syntax-ns#"
   xmlns:svg="http://www.w3.org/2000/svg"
   xmlns="http://www.w3.org/2000/svg"
   xmlns:sodipodi="http://sodipodi.sourceforge.net/DTD/sodipodi-0.dtd"
   xmlns:inkscape="http://www.inkscape.org/namespaces/inkscape"
   version="1.1"
   width="1024"
   height="1024"
   id="svg5180"
   xml:space="preserve"
   inkscape:version="0.48.4 r9939"
   sodipodi:docname="eng.svg"><metadata
   id="metadata5186"><rdf:RDF><cc:Work
       rdf:about=""><dc:format>image/svg+xml</dc:format><dc:type
         rdf:resource="http://purl.org/dc/dcmitype/StillImage" /><dc:title /><dc:creator><cc:Agent><dc:title>Gijs de Rooy</dc:title></cc:Agent></dc:creator></cc:Work></rdf:RDF></metadata><defs
   id="defs5184"><clipPath
   id="clipPath3177"><path
     d="m 109.44,459.54 194.4,0 0,-216 -194.4,0 0,216 z"
     id="path3179" /></clipPath><clipPath
   id="clipPath3133"><path
     d="m 44.64,520.2 324,0 0,-6.24 -324,0 0,6.24 z"
     id="path3135" /></clipPath><clipPath
   id="clipPath3109"><path
     d="m 44.64,36 324,0 0,-10.08 -324,0 0,10.08 z"
     id="path3111" /></clipPath><clipPath
   id="clipPath3095"><path
     d="m 44.64,36 324,0 0,-10.08 -324,0 0,10.08 z"
     id="path3097" /></clipPath><clipPath
   id="clipPath3071"><path
     d="m 44.64,561.24 324,0 0,-4.32 -324,0 0,4.32 z"
     id="path3073" /></clipPath><clipPath
   id="clipPath3035"><path
     d="m 44.64,594 324,0 0,-28.8 -324,0 0,28.8 z"
     id="path3037" /></clipPath><clipPath
   id="clipPath3019"><path
     d="m 44.64,594 324,0 0,-28.8 -324,0 0,28.8 z"
     id="path3021" /></clipPath>










































































































</defs><path
   d="m -0.57527328,0 0,1024 c 0,0 827.74537328,-0.3692 1023.99997328,0 l 0,-1024"
   id="bg"
   style="fill:#000000;fill-opacity:1;fill-rule:evenodd;stroke:none"
   inkscape:label="#path5356"
   inkscape:connector-curvature="0" />































































































<text
   sodipodi:linespacing="125%"
   x="328.36481"
   y="327.0831"
   id="text3218-9-8"
   xml:space="preserve"
   style="font-size:22px;font-style:normal;font-variant:normal;font-weight:normal;font-stretch:normal;text-align:start;line-height:125%;letter-spacing:0px;word-spacing:0px;writing-mode:lr-tb;text-anchor:start;fill:#00ffff;fill-opacity:1;stroke:none;font-family:Liberation Sans;-inkscape-font-specification:Liberation Sans"><tspan
     x="328.36481"
     y="327.0831"
     id="tspan3220-4-8">FF</tspan></text>






<text
   x="163.58095"
   y="332.31924"
   id="eng1ff"
   xml:space="preserve"
   style="font-size:22px;font-style:normal;font-variant:normal;font-weight:normal;font-stretch:normal;text-align:end;line-height:125%;letter-spacing:0px;word-spacing:0px;writing-mode:lr-tb;text-anchor:end;fill:#ffffff;fill-opacity:1;stroke:none;font-family:Liberation Sans;-inkscape-font-specification:Liberation Sans"
   sodipodi:linespacing="125%"
   inkscape:label="#text5605-4"><tspan
     x="163.58095"
     y="332.31924"
     id="tspan5607-5"
     style="font-size:35px;text-align:end;text-anchor:end">99.9</tspan></text>













<path
   d="m 88.4596,297.661 0,45 83.0804,0 0,-45 z"
   id="path4014-1"
   style="fill:none;stroke:#ffffff;stroke-width:3;stroke-linecap:butt;stroke-linejoin:miter;stroke-miterlimit:4;stroke-opacity:1;stroke-dasharray:none"
   inkscape:connector-curvature="0"
   sodipodi:nodetypes="ccccc" /><text
   x="303.38699"
   y="332.31924"
   id="eng2ff"
   xml:space="preserve"
   style="font-size:22px;font-style:normal;font-variant:normal;font-weight:normal;font-stretch:normal;text-align:end;line-height:125%;letter-spacing:0px;word-spacing:0px;writing-mode:lr-tb;text-anchor:end;fill:#ffffff;fill-opacity:1;stroke:none;font-family:Liberation Sans;-inkscape-font-specification:Liberation Sans"
   sodipodi:linespacing="125%"
   inkscape:label="#text5605-4"><tspan
     x="303.38699"
     y="332.31924"
     id="tspan5607-5-7"
     style="font-size:35px;text-align:end;text-anchor:end">99.9</tspan></text>






<text
   x="442.77676"
   y="332.31924"
   id="eng3ff"
   xml:space="preserve"
   style="font-size:22px;font-style:normal;font-variant:normal;font-weight:normal;font-stretch:normal;text-align:end;line-height:125%;letter-spacing:0px;word-spacing:0px;writing-mode:lr-tb;text-anchor:end;fill:#ffffff;fill-opacity:1;stroke:none;font-family:Liberation Sans;-inkscape-font-specification:Liberation Sans"
   sodipodi:linespacing="125%"
   inkscape:label="#text5605-4"><tspan
     x="442.77676"
     y="332.31924"
     id="tspan5607-5-1"
     style="font-size:35px;text-align:end;text-anchor:end">99.9</tspan></text>






<text
   x="583.2514"
   y="332.31924"
   id="eng4ff"
   xml:space="preserve"
   style="font-size:22px;font-style:normal;font-variant:normal;font-weight:normal;font-stretch:normal;text-align:end;line-height:125%;letter-spacing:0px;word-spacing:0px;writing-mode:lr-tb;text-anchor:end;fill:#ffffff;fill-opacity:1;stroke:none;font-family:Liberation Sans;-inkscape-font-specification:Liberation Sans"
   sodipodi:linespacing="125%"
   inkscape:label="#text5605-4"><tspan
     x="583.2514"
     y="332.31924"
     id="tspan5607-5-2"
     style="font-size:35px;text-align:end;text-anchor:end">99.9</tspan></text>






<path
   d="m 228.46,297.661 0,45 83.08,0 0,-45 z"
   id="path4014-1-1"
   style="fill:none;stroke:#ffffff;stroke-width:3;stroke-linecap:butt;stroke-linejoin:miter;stroke-miterlimit:4;stroke-opacity:1;stroke-dasharray:none"
   inkscape:connector-curvature="0"
   sodipodi:nodetypes="ccccc" /><path
   d="m 368.46,297.661 0,45 83.08,0 0,-45 z"
   id="path4014-1-7"
   style="fill:none;stroke:#ffffff;stroke-width:3;stroke-linecap:butt;stroke-linejoin:miter;stroke-miterlimit:4;stroke-opacity:1;stroke-dasharray:none"
   inkscape:connector-curvature="0"
   sodipodi:nodetypes="ccccc" /><path
   d="m 508.46,297.472 0,45.189 83.08,0 0,-44.811 z"
   id="path4014-1-4"
   style="fill:none;stroke:#ffffff;stroke-width:3;stroke-linecap:butt;stroke-linejoin:miter;stroke-miterlimit:4;stroke-opacity:1;stroke-dasharray:none"
   inkscape:connector-curvature="0"
   sodipodi:nodetypes="ccccc" />




































































<text
   style="font-size:22px;font-style:normal;font-variant:normal;font-weight:normal;font-stretch:normal;text-align:start;line-height:125%;letter-spacing:0px;word-spacing:0px;writing-mode:lr-tb;text-anchor:start;fill:#00ffff;fill-opacity:1;stroke:none;font-family:Liberation Sans;-inkscape-font-specification:Liberation Sans"
   xml:space="preserve"
   id="text3195"
   y="182.81187"
   x="328.36481"
   sodipodi:linespacing="125%"><tspan
     id="tspan3197"
     y="182.81187"
     x="328.36481">N2</tspan></text>

<text
   inkscape:label="#text5605-4"
   sodipodi:linespacing="125%"
   style="font-size:22px;font-style:normal;font-variant:normal;font-weight:normal;font-stretch:normal;text-align:end;line-height:125%;letter-spacing:0px;word-spacing:0px;writing-mode:lr-tb;text-anchor:end;fill:#ffffff;fill-opacity:1;stroke:none;font-family:Liberation Sans;-inkscape-font-specification:Liberation Sans"
   xml:space="preserve"
   id="eng1n2"
   y="112.11583"
   x="173.34366"><tspan
     style="font-size:35px;text-align:end;text-anchor:end"
     id="tspan3201"
     y="112.11583"
     x="173.34366">999.9</tspan></text>

<path
   sodipodi:nodetypes="ccccc"
   inkscape:connector-curvature="0"
   style="fill:none;stroke:#ffffff;stroke-width:3.307693;stroke-linecap:butt;stroke-linejoin:miter;stroke-miterlimit:4;stroke-opacity:1;stroke-dasharray:none"
   id="path3203"
   d="m 79.1538,77.6115 0,44.6925 101.6922,0 0,-44.6925 z" /><path
   sodipodi:nodetypes="ccccc"
   inkscape:connector-curvature="0"
   style="fill:none;stroke:#ffffff;stroke-width:3;stroke-linecap:butt;stroke-linejoin:miter;stroke-miterlimit:4;stroke-opacity:1;stroke-dasharray:none"
   id="path3205"
   d="m 122.067,137.458 0,130 15.866,0 0,-130 z" /><text
   inkscape:label="#text5605-4"
   sodipodi:linespacing="125%"
   style="font-size:22px;font-style:normal;font-variant:normal;font-weight:normal;font-stretch:normal;text-align:end;line-height:125%;letter-spacing:0px;word-spacing:0px;writing-mode:lr-tb;text-anchor:end;fill:#ffffff;fill-opacity:1;stroke:none;font-family:Liberation Sans;-inkscape-font-specification:Liberation Sans"
   xml:space="preserve"
   id="eng2n2"
   y="112.11583"
   x="312.60733"><tspan
     style="font-size:35px;text-align:end;text-anchor:end"
     id="tspan3209"
     y="112.11583"
     x="312.60733">999.9</tspan></text>

<text
   inkscape:label="#text5605-4"
   sodipodi:linespacing="125%"
   style="font-size:22px;font-style:normal;font-variant:normal;font-weight:normal;font-stretch:normal;text-align:end;line-height:125%;letter-spacing:0px;word-spacing:0px;writing-mode:lr-tb;text-anchor:end;fill:#ffffff;fill-opacity:1;stroke:none;font-family:Liberation Sans;-inkscape-font-specification:Liberation Sans"
   xml:space="preserve"
   id="eng3n2"
   y="112.11583"
   x="453.08185"><tspan
     style="font-size:35px;text-align:end;text-anchor:end"
     id="tspan3213"
     y="112.11583"
     x="453.08185">999.9</tspan></text>

<text
   inkscape:label="#text5605-4"
   sodipodi:linespacing="125%"
   style="font-size:22px;font-style:normal;font-variant:normal;font-weight:normal;font-stretch:normal;text-align:end;line-height:125%;letter-spacing:0px;word-spacing:0px;writing-mode:lr-tb;text-anchor:end;fill:#ffffff;fill-opacity:1;stroke:none;font-family:Liberation Sans;-inkscape-font-specification:Liberation Sans"
   xml:space="preserve"
   id="eng4n2"
   y="112.11583"
   x="593.55646"><tspan
     style="font-size:35px;text-align:end;text-anchor:end"
     id="tspan3217"
     y="112.11583"
     x="593.55646">999.9</tspan></text>

<path
   sodipodi:nodetypes="ccccc"
   inkscape:connector-curvature="0"
   style="fill:none;stroke:#ffffff;stroke-width:3.307693;stroke-linecap:butt;stroke-linejoin:miter;stroke-miterlimit:4;stroke-opacity:1;stroke-dasharray:none"
   id="path3219"
   d="m 219.154,77.6115 0,44.6925 101.692,0 0,-44.6925 z" /><path
   sodipodi:nodetypes="ccccc"
   inkscape:connector-curvature="0"
   style="fill:none;stroke:#ffffff;stroke-width:3.307693;stroke-linecap:butt;stroke-linejoin:miter;stroke-miterlimit:4;stroke-opacity:1;stroke-dasharray:none"
   id="path3221"
   d="m 359.154,77.6115 0,44.6925 101.692,0 0,-44.6925 z" /><path
   sodipodi:nodetypes="ccccc"
   inkscape:connector-curvature="0"
   style="fill:none;stroke:#ffffff;stroke-width:3.307738;stroke-linecap:butt;stroke-linejoin:miter;stroke-miterlimit:4;stroke-opacity:1;stroke-dasharray:none"
   id="path3223"
   d="m 499.154,77.4226 0,44.8814 101.692,0 0,-44.5061 z" /><path
   d="m 262.067,137.458 0,130 15.866,0 0,-130 z"
   id="path3225"
   style="fill:none;stroke:#ffffff;stroke-width:3;stroke-linecap:butt;stroke-linejoin:miter;stroke-miterlimit:4;stroke-opacity:1;stroke-dasharray:none"
   inkscape:connector-curvature="0"
   sodipodi:nodetypes="ccccc" /><path
   sodipodi:nodetypes="ccccc"
   inkscape:connector-curvature="0"
   style="fill:none;stroke:#ffffff;stroke-width:3;stroke-linecap:butt;stroke-linejoin:miter;stroke-miterlimit:4;stroke-opacity:1;stroke-dasharray:none"
   id="path3227"
   d="m 402.067,137.458 0,130 15.866,0 0,-130 z" /><path
   d="m 542.067,137.458 0,130 15.866,0 0,-130 z"
   id="path3229"
   style="fill:none;stroke:#ffffff;stroke-width:3;stroke-linecap:butt;stroke-linejoin:miter;stroke-miterlimit:4;stroke-opacity:1;stroke-dasharray:none"
   inkscape:connector-curvature="0"
   sodipodi:nodetypes="ccccc" /><path
   style="fill:none;stroke:#ffffff;stroke-width:15;stroke-linecap:butt;stroke-linejoin:miter;stroke-miterlimit:4;stroke-opacity:1;stroke-dasharray:none"
   d="m 410,138.958 0,127"
   id="eng3n2bar"
   inkscape:connector-curvature="0"
   sodipodi:nodetypes="cc"
   inkscape:transform-center-y="-63.5"
   inkscape:label="#path3104" /><path
   inkscape:label="#path3104"
   inkscape:transform-center-y="-63.5"
   sodipodi:nodetypes="cc"
   inkscape:connector-curvature="0"
   id="eng2n2bar"
   d="m 270,138.958 0,127"
   style="fill:none;stroke:#ffffff;stroke-width:15;stroke-linecap:butt;stroke-linejoin:miter;stroke-miterlimit:4;stroke-opacity:1;stroke-dasharray:none" /><path
   style="fill:none;stroke:#ffffff;stroke-width:15;stroke-linecap:butt;stroke-linejoin:miter;stroke-miterlimit:4;stroke-opacity:1;stroke-dasharray:none"
   d="m 550,138.958 0,127"
   id="eng4n2bar"
   inkscape:connector-curvature="0"
   sodipodi:nodetypes="cc"
   inkscape:transform-center-y="-63.5"
   inkscape:label="#path3104" /><path
   inkscape:label="#path3104"
   inkscape:transform-center-y="-63.5"
   sodipodi:nodetypes="cc"
   inkscape:connector-curvature="0"
   id="eng1n2bar"
   d="m 130,138.958 0,127"
   style="fill:none;stroke:#ffffff;stroke-width:15;stroke-linecap:butt;stroke-linejoin:miter;stroke-miterlimit:4;stroke-opacity:1;stroke-dasharray:none" /><path
   d="m 387.464,137.428 45.072,0"
   id="path3112"
   style="fill:none;stroke:#ff0000;stroke-width:3;stroke-linecap:butt;stroke-linejoin:miter;stroke-miterlimit:4;stroke-opacity:1;stroke-dasharray:none"
   inkscape:label="#path4008"
   inkscape:connector-curvature="0"
   sodipodi:nodetypes="cc" /><path
   sodipodi:nodetypes="cc"
   inkscape:connector-curvature="0"
   inkscape:label="#path4008"
   style="fill:none;stroke:#ff0000;stroke-width:3;stroke-linecap:butt;stroke-linejoin:miter;stroke-miterlimit:4;stroke-opacity:1;stroke-dasharray:none"
   id="path3246"
   d="m 247.464,137.428 45.072,0" /><path
   d="m 107.464,137.428 45.072,0"
   id="path3248"
   style="fill:none;stroke:#ff0000;stroke-width:3;stroke-linecap:butt;stroke-linejoin:miter;stroke-miterlimit:4;stroke-opacity:1;stroke-dasharray:none"
   inkscape:label="#path4008"
   inkscape:connector-curvature="0"
   sodipodi:nodetypes="cc" /><path
   sodipodi:nodetypes="cc"
   inkscape:connector-curvature="0"
   inkscape:label="#path4008"
   style="fill:none;stroke:#ff0000;stroke-width:3;stroke-linecap:butt;stroke-linejoin:miter;stroke-miterlimit:4;stroke-opacity:1;stroke-dasharray:none"
   id="path3250"
   d="m 527.464,137.428 45.072,0" /><text
   style="font-size:22px;font-style:normal;font-variant:normal;font-weight:normal;font-stretch:normal;text-align:start;line-height:125%;letter-spacing:0px;word-spacing:0px;writing-mode:lr-tb;text-anchor:start;fill:#00ffff;fill-opacity:1;stroke:none;font-family:Liberation Sans;-inkscape-font-specification:Liberation Sans"
   xml:space="preserve"
   id="text3036"
   y="398.67633"
   x="315.34787"
   sodipodi:linespacing="125%"><tspan
     id="tspan3038"
     y="398.67633"
     x="315.34787">OIL P</tspan></text>
<text
   inkscape:label="#text5605-4"
   sodipodi:linespacing="125%"
   style="font-size:22px;font-style:normal;font-variant:normal;font-weight:normal;font-stretch:normal;text-align:end;line-height:125%;letter-spacing:0px;word-spacing:0px;writing-mode:lr-tb;text-anchor:end;fill:#ffffff;fill-opacity:1;stroke:none;font-family:Liberation Sans;-inkscape-font-specification:Liberation Sans"
   xml:space="preserve"
   id="eng1oilp"
   y="445.13281"
   x="163.58095"><tspan
     style="font-size:35px;text-align:end;text-anchor:end"
     id="tspan3042"
     y="445.13281"
     x="163.58095">99</tspan></text>
<text
   x="286.15723"
   y="445.13281"
   id="eng2oilp"
   xml:space="preserve"
   style="font-size:22px;font-style:normal;font-variant:normal;font-weight:normal;font-stretch:normal;text-align:end;line-height:125%;letter-spacing:0px;word-spacing:0px;writing-mode:lr-tb;text-anchor:end;fill:#ffffff;fill-opacity:1;stroke:none;font-family:Liberation Sans;-inkscape-font-specification:Liberation Sans"
   sodipodi:linespacing="125%"
   inkscape:label="#text5605-4"><tspan
     x="286.15723"
     y="445.13281"
     id="tspan3046"
     style="font-size:35px;text-align:end;text-anchor:end">99</tspan></text>
<text
   inkscape:label="#text5605-4"
   sodipodi:linespacing="125%"
   style="font-size:22px;font-style:normal;font-variant:normal;font-weight:normal;font-stretch:normal;text-align:end;line-height:125%;letter-spacing:0px;word-spacing:0px;writing-mode:lr-tb;text-anchor:end;fill:#ffffff;fill-opacity:1;stroke:none;font-family:Liberation Sans;-inkscape-font-specification:Liberation Sans"
   xml:space="preserve"
   id="eng3oilp"
   y="445.13281"
   x="430.42841"><tspan
     style="font-size:35px;text-align:end;text-anchor:end"
     id="tspan3050"
     y="445.13281"
     x="430.42841">99</tspan></text>
<text
   x="572.53009"
   y="445.13281"
   id="eng4oilp"
   xml:space="preserve"
   style="font-size:22px;font-style:normal;font-variant:normal;font-weight:normal;font-stretch:normal;text-align:end;line-height:125%;letter-spacing:0px;word-spacing:0px;writing-mode:lr-tb;text-anchor:end;fill:#ffffff;fill-opacity:1;stroke:none;font-family:Liberation Sans;-inkscape-font-specification:Liberation Sans"
   sodipodi:linespacing="125%"
   inkscape:label="#text5605-4"><tspan
     x="572.53009"
     y="445.13281"
     id="tspan3054"
     style="font-size:35px;text-align:end;text-anchor:end">99</tspan></text>
</svg>